adder8/stimuli/adder8.vcd
$version Generated by VerilatedVcd $end
$timescale 1ps $end
 $scope module $rootio $end
 $upscope $end
 $scope module tb_adder8 $end
  $var real 64 3 T_CLK_HI $end
  $var real 64 3 T_CLK_LO $end
  $var real 64 5 T_CLK $end
  $var real 64 7 T_APPL_DEL $end
  $var real 64 3 T_ACQ_DEL $end
  $var wire 32 9 NUM_VECTOR [31:0] $end
  $var wire 176 : STIMULI_FILE [175:0] $end
  $var wire 256 @ RESPONSE_FILE [255:0] $end
  $var wire 1 # eoc $end
  $var wire 1 + clk $end
  $var wire 1 , rst_n $end
  $var wire 8 $ a [7:0] $end
  $var wire 8 % b [7:0] $end
  $var wire 8 - sum [7:0] $end
  $var wire 1 & carry_in $end
  $var wire 1 . carry_out $end
  $scope module actual_response $end
   $var wire 1 / carry_out $end
   $var wire 8 0 sum [7:0] $end
  $upscope $end
  $var wire 32 ' load_stimuli__Vstatic__file [31:0] $end
  $var wire 32 ( load_stimuli__Vstatic__temp [31:0] $end
  $var wire 32 1 load_exp_response__Vstatic__file [31:0] $end
  $var wire 32 2 load_exp_response__Vstatic__temp [31:0] $end
  $scope module i_dut $end
   $var wire 1 + clk_i $end
   $var wire 1 , rst_ni $end
   $var wire 8 $ a_i [7:0] $end
   $var wire 8 % b_i [7:0] $end
   $var wire 1 & carry_i $end
   $var wire 8 - sum_o [7:0] $end
   $var wire 1 . carry_o $end
   $var wire 8 ) sum_d [7:0] $end
   $var wire 8 - sum_q [7:0] $end
   $var wire 1 H carry_d $end
   $var wire 1 . carry_q $end
   $var wire 8 ) temp_result [7:0] $end
  $upscope $end
  $scope module stim_apply $end
   $scope module unnamedblk1 $end
    $var wire 32 * i [31:0] $end
   $upscope $end
  $upscope $end
 $upscope $end
$enddefinitions $end


#0
0#
b00000000 $
b00000000 %
0&
b10000000000000000000000000101100 '
b00000000000000000101011101010111 (
b00000000 )
b00000000000000000000000000000000 *
1+
0,
b00000000 -
0.
0/
b00000000 0
b10000000000000000000000000101100 1
b00000000000000000000000110101110 2
r5 3
r10 5
r1 7
b00000000000000000000000000100000 9
b00101110001011100010111101110011011101000110100101101101011101010110110001101001001011110111001101110100011010010110110101110101011011000110100100101110011101000111100001110100 :
b0010111000101110001011110111001101110100011010010110110101110101011011000110100100101111011001010111100001110000011001010110001101110100011001010110010001011111011100100110010101110011011100000110111101101110011100110110010100101110011101000111100001110100 @
0H
#5000
0+
#10000
1+
1,
#11000
b00010110 $
b10001011 %
1&
b10100010 )
b00000000000000000000000000000001 *
#15000
0+
#20000
1+
b10100010 -
#21000
b01100110 $
b01100001 %
b11001000 )
b00000000000000000000000000000010 *
#25000
0+
b10100010 0
#30000
1+
b11001000 -
#31000
b11110010 $
b10000001 %
0&
b01110011 )
b00000000000000000000000000000011 *
#35000
0+
b11001000 0
#40000
1+
b01110011 -
#41000
b10110000 $
b11011001 %
1&
b10001010 )
b00000000000000000000000000000100 *
#45000
0+
b01110011 0
#50000
1+
b10001010 -
#51000
b10100000 $
b10100100 %
b01000101 )
b00000000000000000000000000000101 *
#55000
0+
b10001010 0
#60000
1+
b01000101 -
#61000
b10111111 $
b11010000 %
b10010000 )
b00000000000000000000000000000110 *
#65000
0+
b01000101 0
#70000
1+
b10010000 -
#71000
b10110101 $
b00000111 %
b10111101 )
b00000000000000000000000000000111 *
#75000
0+
b10010000 0
#80000
1+
b10111101 -
#81000
b01001100 $
b01000001 %
0&
b10001101 )
b00000000000000000000000000001000 *
#85000
0+
b10111101 0
#90000
1+
b10001101 -
#91000
b11101000 $
b00110110 %
1&
b00011111 )
b00000000000000000000000000001001 *
#95000
0+
b10001101 0
#100000
1+
b00011111 -
#101000
b11100110 $
b00010110 %
0&
b11111100 )
b00000000000000000000000000001010 *
#105000
0+
b00011111 0
#110000
1+
b11111100 -
#111000
b11001001 $
b01010011 %
1&
b00011101 )
b00000000000000000000000000001011 *
#115000
0+
b11111100 0
#120000
1+
b00011101 -
#121000
b01101010 $
b10110000 %
0&
b00011010 )
b00000000000000000000000000001100 *
#125000
0+
b00011101 0
#130000
1+
b00011010 -
#131000
b00000111 $
b11110001 %
1&
b11111001 )
b00000000000000000000000000001101 *
#135000
0+
b00011010 0
#140000
1+
b11111001 -
#141000
b11011011 $
b11100000 %
b10111100 )
b00000000000000000000000000001110 *
#145000
0+
b11111001 0
#150000
1+
b10111100 -
#151000
b11001001 $
b01111000 %
b01000010 )
b00000000000000000000000000001111 *
#155000
0+
b10111100 0
#160000
1+
b01000010 -
#161000
b10100000 $
b11101101 %
b10001110 )
b00000000000000000000000000010000 *
#165000
0+
b01000010 0
#170000
1+
b10001110 -
#171000
b10000000 $
b01010100 %
0&
b11010100 )
b00000000000000000000000000010001 *
#175000
0+
b10001110 0
#180000
1+
b11010100 -
#181000
b11110001 $
b00110111 %
b00101000 )
b00000000000000000000000000010010 *
#185000
0+
b11010100 0
#190000
1+
b00101000 -
#191000
b11111101 $
b10001010 %
1&
b10001000 )
b00000000000000000000000000010011 *
#195000
0+
b00101000 0
#200000
1+
b10001000 -
#201000
b11101111 $
b10010111 %
0&
b10000110 )
b00000000000000000000000000010100 *
#205000
0+
b10001000 0
#210000
1+
b10000110 -
#211000
b00111100 $
b01100010 %
1&
b10011111 )
b00000000000000000000000000010101 *
#215000
0+
b10000110 0
#220000
1+
b10011111 -
#221000
b11110001 $
b10001100 %
0&
b01111101 )
b00000000000000000000000000010110 *
#225000
0+
b10011111 0
#230000
1+
b01111101 -
#231000
b10111000 $
b11110010 %
b10101010 )
b00000000000000000000000000010111 *
#235000
0+
b01111101 0
#240000
1+
b10101010 -
#241000
b01000010 $
b01001100 %
b10001110 )
b00000000000000000000000000011000 *
#245000
0+
b10101010 0
#250000
1+
b10001110 -
#251000
b01101101 $
b01010101 %
1&
b11000011 )
b00000000000000000000000000011001 *
#255000
0+
b10001110 0
#260000
1+
b11000011 -
#261000
b00010011 $
b01110011 %
0&
b10000110 )
b00000000000000000000000000011010 *
#265000
0+
b11000011 0
#270000
1+
b10000110 -
#271000
b00011010 $
b10001000 %
1&
b10100011 )
b00000000000000000000000000011011 *
#275000
0+
b10000110 0
#280000
1+
b10100011 -
#281000
b11110110 $
b11011001 %
0&
b11001111 )
b00000000000000000000000000011100 *
#285000
0+
b10100011 0
#290000
1+
b11001111 -
#291000
b11110001 $
b11001011 %
1&
b10111101 )
b00000000000000000000000000011101 *
#295000
0+
b11001111 0
#300000
1+
b10111101 -
#301000
b11100011 $
b01100011 %
b01000111 )
b00000000000000000000000000011110 *
#305000
0+
b10111101 0
#310000
1+
b01000111 -
#311000
b01100010 $
b11000100 %
0&
b00100110 )
b00000000000000000000000000011111 *
#315000
0+
b01000111 0
#320000
1+
b00100110 -
#321000
b00101011 $
b10101011 %
1&
b11010111 )
b00000000000000000000000000100000 *
#325000
0+
b00100110 0
#330000
1+
b11010111 -
#335000
0+
b11010111 0
#340000
1+
#345000
0+
#346000
1#
